---------------------------------------------------
   Die      Victorias    Ganancias     Nombre   
---------------------------------------------------
  452929	8	 4200.00	Anne
  873841	10	48000.00	Kiko
  145877	7	 4600.00	Roneo
  156041	9	35200.00	Cacha
  393568	10	27700.00	Bronx
  456988	9	45000.00	Leona
  521486	9	19600.00	Nicea
  537250	9	 1100.00	Jafer
  933533	5	22500.00	Salub
  230574	40	 8822.00	Pako
  267934	36	22440.00	Sepia
  723568	92	    3.00	Wilson
  123456	86	  765.00	Pablo
  987654	64	  675.00	Cesar
---------------------------------------------------
